Introducción a R Aplicado a la Bioestadística
…
Importamos el archivo en excel **Datos.xls**. Existen dos formas: mediante una librería (o paquete) para leer archivos excel `readxl` o mediante el asistente de R-Studio.

<video width="640" height="480" controls = "controls">
  <source src="datos.mp4" type="video/mp4" markdown = "0">
</video>

---
# 3. Estadística Descriptiva (cont.)

Una vez leídos y almacenados los datos queremos ver qué cotienen:

`head(Datos)`

```
# A tibble: 36 x 3
    Var1  Var2 Var3 
   <dbl> <dbl> <chr>
 1     5     2 9    
 2     6    13 8    
 3     4     4 6    
 4     6     7 6    
 5     0     2 8    
 6     0    19 10   
 7     7     4 5    
 8     4    12 9    
 9     7     3 9    
# … with 27 more rows
```
…
